…
**What year had the most recorded meteorite landings?**

Created a separate table of the years and the count, for easier visualization.

```
# What year had the most recorded meteorite landings?
MeteoriteLandings_Cleaned %>%
  count(year, sort=TRUE)

# A tibble: 265 × 2
    year     n
   <dbl> <int>
 1  2003  3323
 2  1979  3046
 3  1998  2697
 4  2006  2456
 5  1988  2296
 6  2002  2078
 7  2004  1940
 8  2000  1792
 9  1997  1696
10  1999  1691
# ℹ 255 more rows
# ℹ Use `print(n = ...)` to see more rows
…
